UNIDA 2
…
library(inti)
model <- remove_outliers(data = fb,
                         formula = spad_29 ~ riego + geno + riego*geno + (1|bloque),
                         plot_diag = TRUE)
model
## $data
## $data$raw
## # A tibble: 150 × 5
##    index riego    geno  bloque spad_29
##    <chr> <chr>    <chr> <chr>    <dbl>
##  1 1     sequia   G01   II        56.3
##  2 2     sequia   G02   IV        52.7
##  3 3     irrigado G01   III       49.2
##  4 4     sequia   G02   I         55.5
##  5 5     irrigado G03   II        58.2
##  6 6     irrigado G04   V         43.5
##  7 7     irrigado G01   I         57.4
##  8 8     irrigado G05   IV        56.1
##  9 9     sequia   G06   II        61  
## 10 10    sequia   G05   I         60.3
## # ℹ 140 more rows
## 
## $data$clean
##     index    riego geno bloque spad_29
## 1       1   sequia  G01     II   56.30
## 2       2   sequia  G02     IV   52.70
## 3       3 irrigado  G01    III   49.20
## 4       4   sequia  G02      I   55.50
## 5       5 irrigado  G03     II   58.20
…
